<?xml version="1.0" encoding="utf-8"?>
<!-- Generator: Adobe Illustrator 18.1.1, SVG Export Plug-In . SVG Version: 6.00 Build 0)  -->
<svg version="1.1" id="Layer_1" xmlns="http://www.w3.org/2000/svg" xmlns:xlink="http://www.w3.org/1999/xlink" x="0px" y="0px"
	 viewBox="0 0 617.6 498" enable-background="new 0 0 617.6 498" xml:space="preserve">
<linearGradient id="SVGID_1_" gradientUnits="userSpaceOnUse" x1="541.8008" y1="-60.0928" x2="191.4793" y2="474.372">
	<stop  offset="8.786459e-02" style="stop-color:#F47F50"/>
	<stop  offset="0.9258" style="stop-color:#E05D26"/>
</linearGradient>
<path fill="url(#SVGID_1_)" d="M437.5,0h-2.1H60.8C22.9,66.2,0,152.6,0,247.2C0,343.4,23.8,431.3,63,498h372.4c0,0,0,0,0,0v0h182.2
	V0H437.5z"/>
</svg>
