<?xml version="1.0" encoding="utf-8"?>
<!-- Generator: Adobe Illustrator 18.1.1, SVG Export Plug-In . SVG Version: 6.00 Build 0)  -->
<svg version="1.1" id="Layer_1" xmlns="http://www.w3.org/2000/svg" xmlns:xlink="http://www.w3.org/1999/xlink" x="0px" y="0px"
	 viewBox="0 0 937.3 484" enable-background="new 0 0 937.3 484" xml:space="preserve">
<linearGradient id="SVGID_1_" gradientUnits="userSpaceOnUse" x1="795.4959" y1="-199.7839" x2="114.9623" y2="616.8564">
	<stop  offset="0" style="stop-color:#80CDBE"/>
	<stop  offset="1" style="stop-color:#54A393"/>
</linearGradient>
<path fill="url(#SVGID_1_)" d="M291.5,0H62.7H0v484h218h59h577.7c51.7-63.8,82.6-145.1,82.6-233.6c0-96.5-36.8-184.4-97.1-250.4
	H291.5z"/>
</svg>
