<?xml version="1.0" encoding="utf-8"?>
<!-- Generator: Adobe Illustrator 18.1.1, SVG Export Plug-In . SVG Version: 6.00 Build 0)  -->
<svg version="1.1" id="Layer_1" xmlns="http://www.w3.org/2000/svg" xmlns:xlink="http://www.w3.org/1999/xlink" x="0px" y="0px"
	 viewBox="0 0 564 560.5" enable-background="new 0 0 564 560.5" xml:space="preserve">
<g>
	<circle fill="#D5D7D8" cx="282" cy="280.2" r="132"/>
	<circle fill="#FFFFFF" cx="282" cy="280.2" r="117"/>
	<rect x="385" y="277.2" fill="#757B7C" width="10" height="6"/>
	<rect x="279" y="167.2" fill="#757B7C" width="6" height="10"/>
	<rect x="169" y="277.2" fill="#757B7C" width="10" height="6"/>
	<path opacity="0.6" fill="#7351A1" d="M364.3,232.7c-16.4-28.4-47.1-47.5-82.3-47.5v95L364.3,232.7z"/>
	<rect x="279" y="383.2" fill="#757B7C" width="6" height="10"/>
	<rect x="334" y="372.5" transform="matrix(-0.866 0.5 -0.5 -0.866 816.6069 532.2164)" fill="#D5D7D8" width="6" height="6"/>
	<rect x="374.3" y="332.2" transform="matrix(-0.5 0.866 -0.866 -0.5 856.2292 176.1559)" fill="#D5D7D8" width="6" height="6"/>
	<rect x="224" y="372.5" transform="matrix(-0.866 -0.5 0.5 -0.866 235.8314 814.2164)" fill="#D5D7D8" width="6" height="6"/>
	<rect x="183.7" y="332.2" transform="matrix(-0.5 -0.866 0.866 -0.5 -10.2292 664.5942)" fill="#D5D7D8" width="6" height="6"/>
	<rect x="374.3" y="222.2" transform="matrix(0.5 0.866 -0.866 0.5 383.7036 -214.0942)" fill="#D5D7D8" width="6" height="6"/>
	<rect x="334" y="182" transform="matrix(0.866 0.5 -0.5 0.866 137.6431 -143.7164)" fill="#D5D7D8" width="6" height="6"/>
	<rect x="224" y="182" transform="matrix(0.866 -0.5 0.5 0.866 -62.0814 138.2836)" fill="#D5D7D8" width="6" height="6"/>
	<rect x="183.7" y="222.2" transform="matrix(0.5 -0.866 0.866 0.5 -101.7036 274.3442)" fill="#D5D7D8" width="6" height="6"/>
	<line fill="none" stroke="#757B7C" stroke-width="6" stroke-miterlimit="10" x1="334" y1="250.2" x2="282" y2="280.2"/>
	<rect x="279" y="185.2" fill="#757B7C" width="6" height="89"/>
	<line fill="none" stroke="#DD1D40" stroke-width="2" stroke-miterlimit="10" x1="282" y1="280.2" x2="217" y2="345.2"/>
	<circle fill="#757B7C" cx="282" cy="280.2" r="7"/>
</g>
</svg>
